…
We summarize their counts.

``` r
phoible_by_iso_with_p %>%
  group_by(ISO6393) %>%
  summarize(n = n()) %>%
  arrange(desc(n))
```

    ## # A tibble: 1,949 × 2
    ##    ISO6393     n
    ##    <chr>   <int>
    ##  1 lez         6
    ##  2 sjd         6
    ##  3 bcq         5
    ##  4 gle         5
    ##  5 lbe         5
    ##  6 yey         5
    ##  7 acn         4
    ##  8 ahk         4
    ##  9 alw         4
    ## 10 amh         4
    ## # … with 1,939 more rows
…
Which lack a /b/? Quite a few more – 94 out of 253 data points, so
around 37%.

``` r
bdproto_results %>% filter(is.na(has_b))
```

    ## # A tibble: 93 × 3
    ##    BdprotoID has_p has_b
    ##        <dbl> <lgl> <lgl>
    ##  1        10 TRUE  NA   
    ##  2        20 TRUE  NA   
    ##  3        21 TRUE  NA   
    ##  4        22 TRUE  NA   
    ##  5        23 TRUE  NA   
    ##  6        24 TRUE  NA   
    ##  7        25 TRUE  NA   
    ##  8        26 TRUE  NA   
    ##  9        27 TRUE  NA   
    ## 10        30 TRUE  NA   
    ## # … with 83 more rows
…
Which lack a /b/ but not /p/?

``` r
bdproto_results %>% filter(is.na(has_b) & has_p)
```

    ## # A tibble: 93 × 3
    ##    BdprotoID has_p has_b
    ##        <dbl> <lgl> <lgl>
    ##  1        10 TRUE  NA   
    ##  2        20 TRUE  NA   
    ##  3        21 TRUE  NA   
    ##  4        22 TRUE  NA   
    ##  5        23 TRUE  NA   
    ##  6        24 TRUE  NA   
    ##  7        25 TRUE  NA   
    ##  8        26 TRUE  NA   
    ##  9        27 TRUE  NA   
    ## 10        30 TRUE  NA   
    ## # … with 83 more rows
…
